Scallop Conditional Logit Model Example • FishSET
…
Plot the number of observations by zone.

zone_summary(dat = scallopModMainDataTable, 
             spat = scallopModTenMnSqrSpatTable, 
             project = "scallopMod",
             zone.dat = "ZoneID",
             zone.spat = "TEN_ID",
             output = "tab_plot")

## A line object has been specified, but lines is not in the mode
## Adding lines to the mode...

## $table
## # A tibble: 468 × 2
##    ZoneID     n
##    <chr>  <int>
##  1 416956   242
##  2 387323   229
##  3 406962   225
##  4 387313   223
##  5 387332   198
##  6 387322   193
##  7 387341   188
##  8 406923   177
##  9 406961   172
## 10 387463   160
## # ℹ 458 more rows
## 
## $plot
…
create_centroid(spat = scallopModTenMnSqrSpatTable,
                project = "scallopMod",
                spatID = "TEN_ID",
                type = "zonal centroid",
                output = "centroid table")

## Warning: st_centroid assumes attributes are constant over geometries

## Warning in find_centroid(spat = spatdat, project = project, spatID = spatID, :
## Duplicate centroids found for at least one zone. Using first centroid.

## Geographic centroid saved to fishSET database

## # A tibble: 4,537 × 3
##    ZoneID cent.lon cent.lat
##     <dbl>    <dbl>    <dbl>
##  1      0    -73.3     45.8
##  2 336411    -64.9     33.9
##  3 336412    -64.7     33.9
##  4 336413    -64.6     33.9
##  5 336414    -64.4     33.9
##  6 336415    -64.2     33.9
##  7 336416    -64.1     33.9
##  8 336421    -64.9     33.7
##  9 336422    -64.7     33.7
## 10 336423    -64.6     33.7
## # ℹ 4,527 more rows
…
